<svg width="30" height="20" viewBox="0 0 30 20" fill="none" xmlns="http://www.w3.org/2000/svg">
    <rect y="3" width="30" height="1" fill="currentColor"/>
    <rect y="9.5" width="30" height="1" fill="currentColor"/>
    <rect y="16" width="30" height="1" fill="currentColor"/>
</svg>