<svg width="30" height="30" viewBox="0 0 30 30" fill="none" xmlns="http://www.w3.org/2000/svg">
    <path fill-rule="evenodd" clip-rule="evenodd" d="M13.956 25.168V14.4468H11V11.087H13.956V8.60935C13.956 5.73377 15.7448 4.16797 18.3587 4.16797C19.6108 4.16797 20.6863 4.2598 21 4.30062V7.30606L19.1875 7.30699C17.7662 7.30699 17.4912 7.97023 17.4912 8.94236V11.0879H20.8809L20.4396 14.4477H17.4912V25.168H13.956Z" fill="currentColor"/>
</svg>
