<svg width="50" height="50" viewBox="0 0 50 50" fill="none" xmlns="http://www.w3.org/2000/svg">
    <circle cx="25" cy="25" r="24.4" stroke="currentColor" stroke-width="1.2"/>
    <rect x="15.3" y="24.7004" width="18.9" height="0.6" stroke="currentColor" stroke-width="0.6"/>
    <path d="M29 31L35 25L29 19" stroke="currentColor" stroke-width="1.2"/>
</svg>